[gd_scene load_steps=3 format=2]

[ext_resource path="res://Props/Portal/PortalManager.cs" type="Script" id=1]
[ext_resource path="res://Props/Portal/Portal.tscn" type="PackedScene" id=2]

[node name="PortalManager" type="Node2D"]
script = ExtResource( 1 )

[node name="Portal" parent="." instance=ExtResource( 2 )]
position = Vector2( -0.707123, 0 )
collision_layer = 0
collision_mask = 2

[node name="Portal2" parent="." instance=ExtResource( 2 )]
collision_layer = 0
collision_mask = 2

[node name="Timer" type="Timer" parent="."]
one_shot = true
[connection signal="OnPortalActivated" from="Portal" to="." method="OnPortalActivated"]
[connection signal="OnPortalActivated" from="Portal2" to="." method="OnPortalActivated"]
[connection signal="timeout" from="Timer" to="." method="OnTimerTimeout"]
