[gd_scene load_steps=7 format=2]

[ext_resource path="res://Props/SCROLLS POTIONS ARTEFACT.png" type="Texture" id=1]
[ext_resource path="res://Props/Scrolls/Scroll.cs" type="Script" id=2]

[sub_resource type="CapsuleShape2D" id=1]
radius = 11.3938
height = 31.0876

[sub_resource type="Animation" id=2]
resource_name = "Default"
loop = true
tracks/0/type = "value"
tracks/0/path = NodePath("Sprite:scale")
tracks/0/interp = 1
tracks/0/loop_wrap = true
tracks/0/imported = false
tracks/0/enabled = true
tracks/0/keys = {
"times": PoolRealArray( 0, 0.5, 1 ),
"transitions": PoolRealArray( 2, 1, 1 ),
"update": 0,
"values": [ Vector2( 0.1, 0.1 ), Vector2( 0.12, 0.12 ), Vector2( 0.1, 0.1 ) ]
}

[sub_resource type="Animation" id=3]
resource_name = "Die"
length = 0.5
tracks/0/type = "value"
tracks/0/path = NodePath("Sprite:scale")
tracks/0/interp = 1
tracks/0/loop_wrap = true
tracks/0/imported = false
tracks/0/enabled = true
tracks/0/keys = {
"times": PoolRealArray( 0, 0.5 ),
"transitions": PoolRealArray( 2, 1 ),
"update": 0,
"values": [ Vector2( 0.1, 0.1 ), Vector2( 0, 0 ) ]
}

[sub_resource type="Animation" id=4]
resource_name = "Start"
length = 0.5
tracks/0/type = "value"
tracks/0/path = NodePath("Sprite:scale")
tracks/0/interp = 1
tracks/0/loop_wrap = true
tracks/0/imported = false
tracks/0/enabled = true
tracks/0/keys = {
"times": PoolRealArray( 0, 0.5 ),
"transitions": PoolRealArray( 1, 1 ),
"update": 0,
"values": [ Vector2( 0, 0 ), Vector2( 0.1, 0.1 ) ]
}

[node name="Scroll" type="Area2D"]
collision_layer = 0
collision_mask = 2
script = ExtResource( 2 )

[node name="Sprite" type="Sprite" parent="."]
position = Vector2( 3.1748, 0 )
scale = Vector2( 1e-05, 1e-05 )
texture = ExtResource( 1 )
region_enabled = true
region_rect = Rect2( 3276.31, 65, 491, 411 )

[node name="Shape" type="CollisionShape2D" parent="."]
position = Vector2( 2.38524, -1.49012e-08 )
rotation = 1.09482
shape = SubResource( 1 )

[node name="Anim" type="AnimationPlayer" parent="."]
anims/Default = SubResource( 2 )
anims/Die = SubResource( 3 )
anims/Start = SubResource( 4 )

[node name="SoundPlayer" type="AudioStreamPlayer2D" parent="."]
[connection signal="body_entered" from="." to="." method="OnScrollBodyEntered"]
